[gd_scene load_steps=2 format=2]

[ext_resource path="res://BattleDisplay/StatusComponent/CanvasStatus.tscn" type="PackedScene" id=1]

[node name="StatusBar" type="Viewport"]
size = Vector2( 2000, 300 )
own_world = true
transparent_bg = true
render_target_v_flip = true

[node name="CanvasStatus" parent="." instance=ExtResource( 1 )]
